01116001;ARINI PUTRI KUSMAWATI ;P;ISLAM;SURABAYA ;24/09/1995;SMK IPIEMS SURABAYA ;DN-05 Mk 0013745;24/05/2013;B;JL KEDINDING LOR DUKU 12A SURABAYA ;081233371437;12/01/2016
01116002;ARIF RAHMAN HAKIM (pindahan dari akuntansi nim 01115106)semester genap;L;ISLAM ;JOMBANG ;05/05/1996;SMK DARMA SISWA 1 SIDOARJO ;DN-05 Mk 0057970;15/05/2015;B;PRANTI A/37 RT 9 RW 3 SEDATI SDA ;089611580371;24/02/2016
01116003;AMALIA ROSAMANDA ;P;ISLAM ;SURABAYA ;06/08/1992;SMA KARTIKA IV -3 SURABAYA ;DN-05 Ma 0008753;26/04/2010;B;PERUM PONDOK MANGGALA BC II/10 SURABAYA ;081233552575;30/03/2016
01116004;FITRI PRATIWININGTIAS ;P;ISLAM ;SURABAYA ;19/02/1996;SMK IPIEMS SURABAYA ;DN-05 Mk 0014915;20/05/2014;A;JL JOJORAN 1 NO 35 C SURABAYA ;085733350059;04/04/2016
01116005;SISKA PUTRI UTAMI ;P;ISLAM ;JEMBER ;15/12/1995;SMK IPIEMS SURABAYA ;DN-05 Mk 0014972;20/05/2014;B;JL BULAK CUMPAT UTARA IA/65 SURABAYA ';082337334549;16/04/2016
01116006;LAILATUL MASRUROH ;P;ISLAM ;JOMBANG ;19/05/1996;SMKN 10 SURABAYA ;DN-05 Mk 0018248;20/05/2014;B;JL BULAK CUMPAT TIMUR I NO 21 SURABAYA ';082334160155;16/04/2016
01116007;RIDA KUSUMA DEWI ;P;ISLAM ;MALANG ;11/03/1993;SMK NU SUNAN AMPEL PONCOKUSUMO ;DN-05 Mk 0129157;26/05/2012;B;NGADIRESO RT 11 RW 02 KEC PONCOKUSUMO KAB MALANG ;082335427571;20/04/2016
01116008;SERLI NONA BILI ;P;KRISTEN ;BINA LONA ;07/02/1996;SMKN 1 WAIKABUBAK SUMBA BARAT ;DN-24 Mk 0012076;15/05/2015;B;PUCANG INDAH ;081353244228;23/04/1016
01116009;ZELA RATNAWATI;P;ISLAM ;SURABAYA ;18/03/1997;SMAN 7 SURABAYA ;DN-05 Ma 0002457;15/05/2015;B;JL MRUTU KALIANYAR 189;082234060544;27/04/2016
01116010;ARDAN ARMAN QOYUMI (mengundurkan diri per 30 agust'16 data mahasiswa ada di surat masuk bar );L;ISLAM ;BANYUWANGI ;19/06/1996;SMAN 2 BANGKALAN ;DN -05 Ma 0076317;20/05/2014;A;DUSUN SAWO RT 02/RW 01 DESA TAJUNGAN KEC. KAMAL KAB BANGKALAN MADURA ;082178548000;27/04/2016
01116011;RISKY PRASETYA PERDANA ;L;ISLAM ;SURABAYA ;23/04/1996;SMKN 12 SURABAYA ;DN-05 Mk 0014055;20/05/2014;B;JL GEMBILI II/41 SURABAYA ;085101554554;27/04/2016
01116012;ETIKA PERDANA SETIAPATI ;P;ISLAM ;SIDOARJO ;28/10/1996;SMK YAPALIS KRIAN KAB SIDOARJO ;DN-05 Mk 0061122;15/05/2015;A;BUMI PAPAN SALARAS SIDOARJO ;081939139064;27/04/2016
01116013;ASTON ABRAHAM SIMANULLANG ;L;KRISTEN ;PERBAUNGAN ;04/06/1993;SMA SWASTA RK SERDANG MURNI LUBUK PAKAM ;DN - 07 Ma 0016999;16/05/2011;A;JL PERUMAHAN PONDOK MARITIM INDAH BLOK ZZ NO 15 JL KARANG KLUMPRIK BARAT IV;082274474897;28/04/2016
01116014;HANIFA PUTRI PRADISTI;P;ISLAM ;SURABAYA ;05/04/1997;SMK KETINTANG SURABAYA ;DN- 05 Mk 0016413;15/05/2015;A;JL GUBENG JAYA II NO 83B SURABAYA ;089503072585;30/04/2016
01116015;YUSUF MAULANA IBRAHIM ;L;ISLAM ;SURABAYA ;13/03/1996;SMAN 8 SURABAYA ;DN-05 Ma 0003004;20/05/2014;A;JL DEMAK BARAT I/45 SURABAYA ;085746228935/031-5468478;30/04/2016
01116016;NADIATUN NAFIA (IJASAH);P;ISLAM ;SURABAYA ;10/06/1998;SMKN 8 SURABAYA ;;;A;JL MASPATI 5/55 SURABAYA ;0818575066;17/05/2016
01116017;PUTRI ZIZI ZEPTIANI (PINDAH KE MANAJEMEN NIM 01216128);P;ISLAM ;SURABAYA ;10/09/1994;SMK KETINTANG SURABAYA ;DN-05 Mk 0016863;24/05/2013;B;JL KUPANG PANJAAN I NO 7 SURABAYA ;081246277410;17/05/2016
01116018;TITAN NIA PRAMESWARY (IJASAH) diterima di universitas negeri surabaya ;P;ISLAM ;SURABAYA ;28/05/1998;SMK PRAPANCA 2 ;;;A;JL GUBENG KERTAJAYA 4 RAYA NO 18 SURABAYA ;089656092845;17/05/2016
01116019;SITI AZIZAH;P;ISLAM ;BANGKALAN ;18/06/1997;SMK PRAPANCA 2 ;DN-05 Mk/06  0006810;07/05/2016;A;JL JANGKUNGAN 1D NO 5 SURABAYA ;083854199044;17/05/2016
01116020;WINDA KARTIKA SARI (IJASAH) ;P;ISLAM ;SURABAYA ;23/09/1997;SMA MUHAMMADIYAH 1 SURABAYA ;;;A;JL SIDOTOPO LOR I/7 SURABAYA ;085730338598;17/05/2016
01116021;ERSHENE BAITUL RHINNO ;L;ISLAM ;SURABAYA ;20/12/1996;SMK 45 SURABAYA ;DN-05 Mk 0006059;15/05/2015;A;JL. KALI KEPITING 149/29 SURABAYA ;081238326527;20/05/2016
01116022;IBTISAM ;P;ISLAM ;SURABAYA ;12/04/1997;SMK WACHID HASYIM SURABAYA ;DN-05 Mk 0010899;15/05/2015;A;BULAK BANTENG KIDUL 8/5B;081938112508;24/05/2016
01116023;AYU NOVITASARI ;P;ISLAM ;SURABAYA ;08/11/1993;SMKN 1 SURABAYA ;DN-05 Mk 0000392;26/05/2012;A;JL KEPUTERAN KEJAMBON II/91 SURABAYA ;082233880680;30/05/2016
01116024;NADIYATUL SAKINAH ;P;ISLAM ;SURABAYA ;27/05/1997;SMKN 1 SURABAYA ;DN- 05 Mk 0000656;20/05/2014;A;JL. BULAK BANTENG BARU MELATI /56 SURABAYA ;083831844424;30/05/2016
01116025;DEVITA SARI ;P;ISLAM ;SURABAYA ;16/12/1997;SMK MAHARDHIKA SURABAYA ;DN- 05 Mk/06  0004405;07/05/2016;A;JL KALIDAMI 6/29 SURABAYA ;083854505038;30/05/2016
01116026;DANNY PRATAMA WILLIANTARA (IJASAH) ;L;ISLAM ;SURABAYA ;13/11/1997;SMK PGRI 6 SURABAYA ;;;A;PLATUK DONOMULYO GG 2 DALAM /24C;082244775927;31/05/2016
01116027;PITASARI(BIDIK MISI)(IJASAH) ;P;ISLAM ;BOJONEGORO ;03/10/1997;SMAN 1 GONDANG BOJONEGORO ;;;A;JOJORAN V TIMUR E/28 SURABAYA ;087751143359;02/06/2016
01116028;LINA DWI ASTUTIK;P;ISLAM ;LAMONGAN ;16/01/1996;SMK NAHDLATUL ULAMA LAMONGAN ;DN- 05 Mk 0090291;20/05/2014;A;DSN DORO GEDE, DS GEDANGAN KEC SUKODADI LAMONGAN ;085655148914;02/06/2016
01116029;LUSTANTINI SAM (IJASAH BLM LEGALISIR);P;ISLAM;KABUREA;14/10/1997;SMAN 1 WOLOWAE NTT ;DN-24 Ma 0022539;15/05/2015;A;KABUREA NAGEREO FLORES NTT ;082257262454;07/06/2016
01116030;YERI KULUA (IJASAH);L;KRISTEN ;SINAK ;22/05/1996;SMAN 3 NABIRE ;;;A;WISMA MUKTI ;081344727132;11/06/2016
01116031;CINDY MEIRIZA MUHAROMAH (IJASAH) ;P;ISLAM ;CIAMIS ;19/05/1998;SMK ADHIKAWACANA SURABAYA ;;;B;BULAK BANTENG WETAN GG 19 NO 33A;087853312452;11/06/2016
01116032;YUNITA ANGGRAINI PRATIWI ;P;ISLAM ;BLITAR ;28/06/1995;SMK ADHIKAWACANA SURABAYA ;DN-05 Mk 0014621;24/05/2013;B;NGINDEN GANG 1 SURABAYA ;089606004702;11/06/2016
01116033;EVERILLIA YOLANDA SUSANTO (IJASAH) ;P;KRISTEN ;JEMBER ;04/04/1998;SMAK SANTO PAULUS JEMBER ;;;B;JL BALI 56 BALUNG ;081259865737;11/06/2016
01116034;REFI RIA RUMANTI ;P;KRISTEN ;PANDANSARI;12/09/1991;SMK XAVERIUS 1 BELITANG OKU TIMUR ;DN-11 Mk 0015679;26/04/2010;B;JL RAWA BARU 5/48 UJUNG ;081330348764;22/06/2016
01116035;WIEKE NINDIA OMITA FERDINANDUS ;P;HINDU ;SIDOARJO ;15/01/1994;PAKET C(KAMPUS SKB KAB SUMBATENGAH);DN- PC 0196412;04/08/2012;B;JL SOMBO SIMOKERTO SBY ;082236554000;30/06/2016
01116036;RIDHA LAILI MUBSTIRO(IJASAH) ;P;ISLAM ;SURABAYA ;02/05/1997;SMKN 10 SURABAYA ;;;A;BULAK BANTENG LOR BHINEKA 2/NO 47 SURABAYA ;081217277931;11/07/2016
01116037;NUR FITRIANI ;P;ISLAM ;SURABAYA ;30/11/1997;SMK TRI GUNA BHAKTI SURABAYA ;DN-05 Mk  0002506;07/05/2016;A;TAMBAK WEDI TENGAH 7/38 SURABAYA ;08179316701;11/07/2016
01116038;AYU ANANDA SARI(IJASAH) ;P;ISLAM ;BANJARMASIN ;14/03/1998;SMAN 2 BANJARMASIN ;;;A;JL PURNASAKTI JER 10 BLOC C NO 10 BANJARMASIN (KALSEL) ;081351508691;11/07/2016
01116039;DINI HARIYANTI (IJASAH);P;ISLAM ;SURABAYA ;19/09/1997;SMAN 19 SURABAYA;;;A;BULAK SETRO MAKAM NO 4 SURABAYA ;085646291122;11/07/2016
01116040;HILMA SILVIA DAMAYANTI(IJASAH);P;ISLAM ;LAMONGAN ;22/12/1997;SMK KESEHATAN NURUL UMMAH BABAT LAMONGAN ;;;A;DS PLAOSAN KEC BABAT KAB LAMONGAN.KEDINDING LOR JLN TEMBUSAN NO 6;085707134920;12/07/2016
01116041;DESY DWI ANDIYANI (IJASAH) ;P;ISLAM ;JEMBRANA ;01/12/1997;SMAN 3 PAMEKASAN ;;;A;NYALABU PERMAI II/12 PAMEKASAN ;0324-330510/087750223212;12/07/2016
01116042; STEFANUS STANLEI UMBU ZOGARA KEZA (IJASAH);L;KRISTEN ;WEETOMMA  NTT ;18/09/1995;SMAS ST. THOMAS AQUINAS ;;;A;SEMOLO WARU UTARA ;082339937893;13/07/2016
01116043;HANY RIFKY ERYANTO (pindah ke manajemen nim 01216142;L;ISLAM ;SURABAYA ;19/06/1996;PAKET C( PKBM MERCU BUANA SAMBIKEREP);DN- 05 PC 0025042;20/09/2014;B;JL ASEMPAYUNG II/4C SURABAYA ;081235921677;18/07/2016
01116044;RENY HARNANIK ;P;ISLAM ;BOJONEGORO ;03/04/1996;MAN RENGEL TUBAN ;MA 130007728;24/05/2013;B;DS KEDUNGPRIMPEN KEC KANOR BOJONEGORO/KERTAJAYA INDAH TIMUR BLOK P-33 SURABAYA ;081232348237;18/07/2016
01116045;ADELLA RAHMAWATI ;P;ISLAM ;SURABAYA ;19/08/1997;SMA TRIMURTI SURABAYA ;DN- 05 Ma 0001246;15/05/2015;A;JL NGAGLIK DKA 80 A SURABAYA ;082244462198;18/07/2016
01116046;RIZKI MULTI PRATAMA(IJASAH TRANSKIP BELUM LEGAlLISIR) TEMAN INDAH TERAKHIR SEPT'2016;L;ISLAM ;SURABAYA ;22/12/1993;UNIVERSITAS TELKOM BANDUNG ;630311009;29/04/2015;B;WIYUNG INDAH E/26 SURABAYA ;081333254729;18/07/2016
01116047;AFIDA MAGHFIROH MAULIANI ;P;ISLAM ;SURABAYA ;31/07/1997;SMAN 4 SIDOARJO ;DN- 05 Ma 0023371;15/05/2015;A;PERUM TAS II BLOK N5/27 TANGGULANGIN SDA ;085851878676;18/07/2016
01116048;EKA DAMAI YANTI ;P;ISLAM ;SURABAYA ;10/06/1995;SMK BARUNAWATI SURABAYA ;DN-05 Mk 0018525;24/05/2013;B;JL KEDUNG KLINTER V/37 SURABAYA ;08983891526;26/07/2016
01116049;EKO SUKARNO PUTRO (IJASAH) ;L;ISLAM ;MOJOKERTO ;05/11/1997;SMAN 1 SOOKO MOJOKERTO ;;;A;DS MOJODOWO RT 02 RW 03 KEC KEMLAGI KAB MOJOKERTO ;082257448317;26/07/2016
01116050;RIFQI NAUFAL DWI SUNGKONO ;L;ISLAM ;SURABAYA ;03/09/1998;SMKN 12 SURABAYA ;DN-05 Mk/13  0007021;07/05/2016;A;BALONG PANDAN RT 06 RW 01 SUKODONO SDA ;085607124516;26/07/2016
01116051;VITA FAHRINI (IJASAH) ;P;ISLAM ;SURABAYA ;20/05/1998;SMA IPIEMS SURABAYA ;;;B;JL GUBENG AIRLANGGA 6/17 B SURABAYA ;085646111191;26/07/2016
01116052;YURIKAH HAWARIYIN;P;ISLAM ;SURABAYA ;09/12/1995;SMAN 19 SURABAYA;DN-05 Ma 0006738;20/05/2014;A;JL BULAK RUKEM TIMUR IA/15 SBY;08563304355;30/07/2016
01116053;KURNIA ANDRI DWI PERMANA(IJASAH TRANSKIP,KONVERSI BELUM LEGALISIR);L;ISLAM ;MALANG ;18/12/1993;POLITEKNIK NEGERI MALANG ;1232510038;11/08/2015;B;JL WATU GILANG 1 NO 11 SURABAYA ;089680874153;30/07/2016
01116054;SESILIA NOVIANA LOMI (IJASAH) ;P;KRISTEN ;UMAKABELAK ;26/11/1996;SMAN 1 MALAKA TIMUR ;;;A;JL KLAMPIS SACHAROSA ;081238980607;30/07/2016
01116055;STEFANIE ;P;KRISTEN ;PONTIANAK;08/04/1998;SMA SANTA ANGELA BANDUNG ;DN-02 Ma/06  0001353;07/05/2016;A;JL .LEBAK REJO UTARA 2 NO 5 SURABAYA ;085322603468;30/07/2016
01116056;INTAN AYU PERMATASARI ;P;ISLAM ;SURABAYA ;14/11/1996;SMAN 17 SURABAYA ;DN-05 Ma 0003848;15/05/2015;A;SEMOLOWARU SELATAN II/22 SURABAYA ;08990566086;30/07/2016
01116057;MOCH RAMADHAN RAHMAN ;L;ISLAM ;SURABAYA ;03/02/1997;SMAN 16 SURABAYA ;DN-05 Ma 0005678;15/05/2015;A;JL PULO WONOKROMO WETAN 3/7 SURABAYA ;085791964853;30/07/2016
01116058;ZHAENAL VANANI(PINDAH PRODI  KE MANAJEMEN 01216095);;;;;;;;;;;
01116059;LINDA TRIE AGUSHINTA (skhu) ;P;ISLAM ;SURABAYA ;29/08/1998;SMA KEMALA BHAYANGKARI 1 SURABAYA ;DN-05 Ma/06  0003649;07/05/2016;A;JL.PAYAN NDALEMAN NO 1 RT 62 RW 5 PABEAN SEDATI SDA ;08510353352;30/07/2016
01116060;M. IVAN FERDIANSYAH ANAM ;L;ISLAM;SURABAYA ;14/01/1993;POLITEKNIK UBAYA ;4101013;02/09/2013;B;JL ASEM JAYA 6/21 SURABAYA ;081258148851;03/08/2016
01116061;APRILITA NOVITA SARI (IJASAH) ;P;ISLAM ;MADIUN ;23/04/1996;SMAN I PILANGKENCENG MADIUN ;;;B;DS KENONGOREJO RT 27 RW 05 KEC PILANGKENCENG KAB MADIUN;08123433858;03/08/2016
01116062;RIA SUNARTI NINGSIH;P;ISLAM ;TUBAN ;14/04/1998;SMK ANTARTIKA 2 SDA ;0000017;;A;JL JENDRAL S PARMAN GG V NO 67 WARU ;085748971180;10/08/2016
01116063;EVA DWI APRELIA(PINDAHAN DARI MANAJEMEN  nim 01216005);P;ISLAM ;PACITAN ;13/04/1995;SMA MUHAMMADIYAH 4 KARANG PILANG KOTA SURABAYA ;DN-05 Ma 0004529;24/05/2013;C;JL MENGANTI WIYUNG GANG TENGAH /IV A SURABAYA ;082331111489;28/03/2016
01116064;IIN PUJIARTI UMAR ;P;ISLAM ;AMASING KOTA ;27/10/1998;SMA KEMALA BHAYANGKARI 1 SURABAYA ;DN-05 Ma/06  0003204;07/05/2016;A;PERUM JUANDA REGENCY B-12 SURABAYA ;081331006441;11/08/2016
01116065;HENDRA WAHYU ARDENATA KRISNA ;L;ISLAM ;KEDIRI ;22/08/1997;SMA IPIEMS SURABAYA ;DN-05 Ma/13  0001367;07/05/2016;A;JL PLOSO 10 TENGAHNO 6B SURABAYA ;088226224970;16/08/2016
01116066;YOLAN PERUCA ROSA ;P;ISLAM ;GRESIK ;17/11/1997;SMAN1 DRIYOREJO GRESIK ;DN-05 Ma 0021953;15/05/2015;A;DS KESAMBEN WETAN RT 08 RW 02 DRIYOREJO GRESIK ;085704012800;16/08/2016
01116067;NABILAH TAQIYYAH FAISAL (IJASAH) ;P;ISLAM ;SURABAYA ;22/04/1998;SMAN 19 SURABAYA;;;A;JL.DUKUH SETRO 8/48 SBY ;081358441972;16/08/2016
01116068;ERANIO ADAM ;L;ISLAM ;SURABAYA ;05/06/1997;SMA MUHAMMADIYAH 1 SURABAYA ;DN- 05 Ma 0002520;15/05/2015;A;JL ALUN ALUN RANGKAH NO 31-B SURABAYA ;081333378469;16/08/2016
01116069;MOCH. SYAIFUL ISLAM (IJASAH) ;L;ISLAM ;SURABAYA ;26/06/1998;SMAN 18 SURABAYA ;;;A;JL PULOSARI BUKIT NO 39 SURABAYA ;08984276864;16/08/2016
01116070;ZAKY ZAHRON(IJASAH) ;L;ISLAM ;SURABAYA ;22/06/1998;SMAN 18 SURABAYA ;;;A;PERUMAHAN GUNUNG SARI INDAH BLOK Q-26 KEL KEDURUS KEC KARANG PILANG SURABAYA;081357442658;16/08/2016
01116071;KRISMA YUNIARTA (IJASAH) ;P;ISLAM ;SURABAYA ;01/06/1998;SMK FARMASI SURABAYA ;;;A;JL SIDOTOPO LOR I/32 SURABAYA ;085850482128;18/08/2016
01116072;AMELIA RAHMADEWI ;P;ISLAM ;SURABAYA ;13/05/1997;SMKN 1 SURABAYA ;DN-05 Mk 0000265;15/05/2015;B;JL RUNGKUT ASRI TENGAH VIII/15 SBY ;082257819447;18/08/2016
01116073;AFIDATUL WAHYUNI ;P;ISLAM ;SURABAYA ;23/07/1995;SEKOLAH TINGGI ILMU EKONOMI INDONESIA SURABAYA ;1310301575;31/03/2016;A;JL SIDODADI 8/65 SURABAYA ;083830624761;23/08/2016
01116074;RAMADHON AULIA PRAMUDIA H(IJASAH);L;ISLAM ;LAMONGAN ;18/07/1999;SMK NU MAMBA'UL ULUM MODO;;;A;DS KEDUNGKEREP -MODO- LAMONGAN ;085785113706;26/08/2016
01116075;VIDIA DAMAYANTI;P;ISLAM ;SURABAYA ;14/04/1998;SMA KHADIJAH SURABAYA ;DN- 05 Ma/13 0006003;07/05/2016;A;JL MARGOREJO TANGSI I NO 35 SBY;081330352744;29/08/2016
01116076;NININ FURIANTI APRILIA PRANDINI ;P;ISLAM ;KEDIRI ;20/04/1998;SMKN 1 POGALAN KAB TRENGGALEK ;DN-05 Mk/13 0057522;07/05/2016;B;RT16 RW 07 DS NGADIRENGGO KEC POGALAN KAB TRENGGALEK ;082131594855;30/08/2016
01116077;AJI PUJI LESTARI (IJASAH) ;P;ISLAM ;SURABAYA ;17/11/1997;SMKN 10 SURABAYA ;;;A;JL TAMBAK GRINSING BARU BLOK III/4 20;082230969817;03/09/2016
01116078;INA YATUL AINIYAH ;P;ISLAM ;KEDIRI ;16/02/1998;MAN NGLAWAK KERTOSONO ;MA 152020946;07/05/2016;A;JL MURIA NO 5 KUTOREJO KEC KERTOSONO ;085606060394;03/09/2016
01116079;VINA SEPTIANA ;P;ISLAM;LAMONGAN ;17/09/1993;UNIVERSITAS NEGERI SURABAYA ;118583003;05/08/2014;B;KERTAJAYA VIA NO 36 SURABAYA ;085706934631;7/09/2016
01116080;PERWIRA RAHMADIANSYAH (DIISI NO HP);L;ISLAM ;SURABAYA ;13/12/1993;SMA HANG TUAH 4 SURABAYA ;DN- 05 Ma 0006967;16/05/2011;B;DARMOKALI I/3-C RT 007/RW 003 KEL DARMO KEC WONOKROMO KOTA SURABAYA ;TDK ADA NO TELPON ;07/09/2016
01116081;ISMAEL DAUD KAMBUAYA (PINDAHAN DARI MANAJEMEN NM 01216139);L;KRISTEN ;SAUF;11/11/1995;YPK 1 EBENHAEZER KOTA SORONG ;DN-33 Ma/06 0000619;07/05/2016;A;AYAMARU SORONG PAPUA BARAT;082112200418;07/092016
01116082;ARIE CHINTYA AYUNING TYAS ( SKHU );P;ISLAM;SURABAYA ;03/09/1998;SMK GIKI 1 SURABAYA ;DN- 05 Mk/06  0000830;07/05/2016;A;JL. WADUNG ASRI DALAM 45C SURABAYA ;081294711447;24/01/2017
01116083;AKBAR ISA PRAKOSO ;L;ISLAM;SURABAYA ;23/10/1996;SMKN 5 SURABAYA ;DN- 05 Mk  0000097;15/05/2015;A;JL TENGGUMUNG BARU SELATAN 41;089668855948;31/01/2017
01116084;LAILYA HANDIYANI ;P;ISLAM ;SURABAYA ;18/03/1996;SMKN 4 SURABAYA ;DN- 05 Mk 0005281;24/05/2013;B;JL SCORPIO NO 39 SURABAYA ;085790670878;07/02/2017
01116085;AGUS HERI PRASETYO;L;ISLAM;WONOGIRI ;24/08/1991;SMKN 1 CERME GRESIK ;DN- 05 Mk 0040875;26/04/2010;B;DS CERME KIDUL RT 02 RW 02 CERME GRESIK ;083832758623;09/02/2017
01116086;ROOISATHUS SHOLIKHAH ;P;ISLAM ;SURABAYA ;03/06/1998;SMK BARUNAWATI SURABAYA ;DN-05 Mk/06  0009501;07/05/2016;A;GADUKAN UTARA 4A NO 2 SURABAYA ;08977078750;10/02/2017
01116087;DHEVI TIA SARI SETYAWAN ;P;ISLAM ;SIDOARJO ;28/12/1995;SMKN 2 BUDURAN SDA;DN- 05  Mk  0052405;20/05/2014;A;JL. KEBONSARI RT 006 RW 001 CANDI SIDOARJO ;082244223822;23/02/2017
01116088;SILVIA NOVITA SARI;P;ISLAM ;TUBAN ;04/11/1997;SMKN 10 SURABAYA ;DN- 05 Mk/13  0005632;07/05/2016;B;JL KEDONG THOMAS 3/6A SURABAYA ;089636442823;27/02/2017
01116089;ILMIYATUZ ZUNAIDA ;P;ISLAM ;PASURUAN ;17/12/1995;SMAN 2 KOTA PASURUAN ;DN- 02 Ma  0013243;20/05/2014;B;JL MELATI NO.45 RT 1 RW 9 KEL KEBONSARI KEC. PANGGUNGREJO KOTA PASURUAN ;0343-416043/087812004077;27/02/2017
01116090;INDIRA ANNY MAFLUCHAH;P;ISLAM ;SURABAYA ;01/09/1998;SMKN 1 SURABAYA ;DN- 05 Mk/13  0000606;07/05/2016;B;JL. CANDI LONTAR BLOK 41E/1 SAMBIKEREP LONTAR SURABAYA ;085732028900;27/02/2017
01116091;ANA TARMA'ASIH;P;ISLAM ;LAMONGAN ;07/09/1995;SMAN 1 BABAT LAMONGAN ;DN-05  Ma  0029869;24/05/2013;A;JL PLEMAHAN GG V NO 58 SURABAYA ;085604000511;03/03/2017
01116092;DYAH SHINTA TRISNA PUTRI ;P;ISLAM ;JAKARTA ;02/07/1997;SMK YADIKA 4 KOTA TANGERANG ;DN-30 Mk  0014966;24/05/2013;B;JL BANYU URIP LOR 3D NO 5 SAWAHAN KUPANG KRAJAN ;081339779154;14/03/2017
