04215001,ACHMAD YUDAN SUTANTO ,L,ISLAM ,SURABAYA ,01/12/1992,SMK METRIKA SURABAYA ,DN-05 Mk 0006926,16/05/2011,A,AM,,BRATANG GEDE VI/54 SURABAYA ,083854520959/08811595260,12/03/2015
04215002,PRASETYO ADI UTOMO ,L,ISLAM ,MOJOKERTO ,20/10/1991,SMKN 1 MOJOKERTO ,DN-05 Mk 0031156,26/04/2010,B,BM,,JL. PEKAYON I/28 SURABAYA ,081935064088,16/04/2015
04215003,SATRIA EKA DICKY KURNIAWAN ,L,ISLAM ,SURABAYA ,10/12/1994,SMAN 10 WONOCOLO SURABAYA ,DN-05 Ma 0003409,24/05/2013,C,CM,,JL SIWALANKERTO NO 216 A SURABAYA ,0821417793965,23/04/2015
04215004,AHMAD SHIDIQ CAHYONO ,L,ISLAM ,BOJONEGORO ,22/09/1995,SMK KETINTANG SURABAYA ,DN-05 Mk 0016566,20/05/2014,B,BM,,JL ABDUL KARIM NO 85 RUNGKUT MENANGGAL HARAPAN SURABAYA ,085231676844,23/07/2015
04215005,RISZULLAH RAMADHAN PUTRA ,L,ISLAM ,SURABAYA ,08/01/1997,SMKN 1 SURABAYA ,DN-05 Mk 0000078,15/05/2015,A,AM,,JL MENGANTI WIYUNG III /128 SURABAYA ,083854146074,05/08/2015
04215006,DAMAR KRISMANA PUTRA (SKL),L,ISLAM ,SURABAYA ,07/12/1996,SMK PRAPANCA 2 SURABAYA ,,,A,AM,,JL PUMPUNGAN 5/45B,089650024566,05/08/2015
04215007,MUHAMMAD RIFQI SHOFIYUDDIN (SKL),L,ISLAM ,SIDOARJO ,07/01/1997,SMK DIAN INDONESIA SIDOARJO ,,,A,AM,,JL. HIKMAT NO 1A BETRO SEDATI SIDOARJO ,085607258478,05/08/2015
04215008,NADA MAULIDIA(SKL),P,ISLAM ,SURABAYA ,11/08/1997,SMA YP 17 SURABAYA ,,,A,AM,,JL. DUKUH BULAK BANTENG II PANDU 1/35 SURABAYA ,089692310032,05/08/2015
04215009,MOCH. RAFLI DWI SYAH PUTRA ,L,ISLAM ,SURABAYA ,06/12/1997,SMAN 3 SURABAYA ,DN-05 Ma 0000494,15/05/2015,A,AM,,JL. TAMBAK BAYAN 1/5 SURABAYA ,081703654235,05/08/2015
04215010,FRANZELINA DA SILVA DE JESUS SOARES ,P,KRISTEN ,SAU DILI ,11/07/1993,COLEGIO SAO MIGUEL,No ETV DL /2014,02/12/2014,A,AM,,JL. KLAMPIS AJI II/17 A SURABAYA ,081239319977,06/08/2015
04215011,DANIEL BARA PA(IJASAH FOTOCOPI),L,KRISTEN ,SURABAYA ,03/09/1973,SMA KRISTEN PRIBGADI SBY,No 04 OB og 0254079,12/06/1992,C,CM,,PERUM PERMATA TAMAN DELTA AA-19 CANDI SDA ,085231779997,06/08/2015
04215012,SEPTIAN FENDYPUTRA PRATAMA,L,ISLAM ,SIDOARJO ,27/09/1996,SMA ANTARTIKA BUDURAN SIDOARJO KAB SIDOARJO ,DN-05 Ma 0019899,20/05/2014,A,AM,,PERUM PALEM PUTRI 0-20 RT 05 RW 03 DESA BALONGGABUS CANDI SIDOARJO ,089508219943/0318962267,06/08/2015
04215013,RICSA ANDREAN (EXPO CAMPUS) ,L,ISLAM ,SURABAYA ,16/12/1996,SMKN 1 SURABAYA ,DN-05 Mk 0000074,15/05/2015,A,AM,,JL JOBOLOYO GG LANGGAR NO 146 SURABAYA ,083849836221,07/08/2015
04215014,KHOERUL ANAM (pindha ke teknik informatika 04315103),L,ISLAM ,REMBANG ,26/05/2012,MA NAHJATUS SHOLIHIN KRAGAN ,MA 110007786,26/05/2012,A,AM,,DESA SUDAN KEC.KRAGAN KAB REMBANG PROVINSI JAWATENGAH ,083843163640,07/08/2015
04215015,ALFIN SYAFRODHIN (SKL) ,L,ISLAM ,SURABAYA ,19/02/1997,SMK SUNAN GIRI GRESIK ,,,A,AM,,BENDIL JAYA RT 02 RW 06 KAPATIHAN MENGANTI GRESIK ,083857273482,07/08/2015
04215016,NANO WIBISONO ,L,ISLAM ,SURABAYA ,06/08/1993,SMK WACHID HASYIM ,DN-05 Mk 0011606,26/05/2012,C,CM,,KAPASARI PEDUKUHAN 4/9 SURABAYA ,083896600716,10/08/2015
04215017,RIZKY  DAVIT NUGROHO ,L,ISLAM ,SURABAYA ,14/02/1995,SMKN 2 SURABAYA ,DN-05 Mk 0002715,26/05/2012,B,BM,,GREGES BARAT II NO 22 B GREGES ASEMROWO SURABAYA ,089677221083,12/08/2015
04215018,MAULIDIS SHOLIKUN ,L,ISLAM ,GRESIK ,07/07/1997,SMA ASSAADAH  GRESIK ,DN-05 Ma 0020530,15/05/2015,A,AM,,JL KAUMAN RT 13 RW 04 NO 29A SEMBAYAT MANYAR  GRESIK ,089677489369,12/08/2015
04215019,GEEEGEE WIJAYA SAHPUTRA AWULE (SKL),L,ISLAM ,MOJOKERTO ,21/11/1995,SMAN 3 MOJOKERTO ,,,A,AM,,LINK JAYENG V MOJOKERTO ,083831279054,12/08/2015
04215020,ERY TRI ANTO ,L,ISLAM ,SURABAYA ,28/01/1997,SMA DHARMA WANITA 1 SIDOARJO ,DN-05 Ma 0024807,15/05/2015,A,AM,,PERUM GRIYA PERMATA GEDANGAN BLOK Ii-15 GEDANGAN SDA ,031 8538624,18/08/2015
04215021,ADI NUGROHO ,L,ISLAM ,NGANJUK ,15/11/1995,SMAN 1 KERTOSONO ,DN-05 Ma 0048077,24/05/2013,A,AM,,DS BABADAN PATIANROWO NGANJUK ,085852924915,19/08/2015
04215022,FEBRI DWI CAHAYA PUTRA ,L,ISLAM ,SURABAYA ,26/02/1992,JL LAKASANTRI RT 1RW 2 NO 75 SURABAYA ,DN-05 Mk 0000159,26/04/2010,B,BM,,JL LAKARSANTRI RT 1 RW 2 NO 75 SURABAYA ,081217015447,19/08/2015
04215023,AJI SUSANTO ,L,ISLAM ,BLORA ,08/01/1996,SMKN 1 BLORA ,DN-03 Mk 0002900,20/05/2014,A,AM,,DESA BRUMBUNG RT 013 RW 002 KEC. JEPON KAB BLORA ,082220871735,22/08/2015
04215024,NUR KHOLIS (SKL) ,L,ISLAM ,GRESIK ,12/09/1996,SMAN 1 MANYAR GRESIK ,,,A,AM,,DS DUDUK SAMPEYAN RT 03 RW 02 NO 14 GRESIK ,083849162125,24/08/2015
04215025,RIVAL DWI ANGGRIYAN PUTRA ,L,ISLAM ,SURABAYA ,06/04/1997,SMAN 22 SURABAYA ,DN-05 Ma 0005140,15/05/2015,A,AM,,WISMA LIDAH KULON BLOK YB-6  SURABAYA ,082240547398/0317533944,26/08/2015
04215026,SHOHIBUL IQBAL ,L,ISLAM ,BANYUWANGI ,11/07/1993,SMAN 1 BANYUWANGI/STMIK SURABAYA ,DN-05 Ma 0059850/12.41010.0079,26/05/2012,C,CT ,39,JL RINJANI  NO 4 KEL SINGOTRUNAN KEC BANYUWANGI ,082144456655,26/08/2015
04215027,CHEPY AULIA RACHMAN ,L,ISLAM ,SURABAYA ,22/04/1993,SMAN 3 MAKASSAR/STMIK SURABAYA ,DN-19 Ma 0000615/11410100236,16/05/2011,B,BT,41,JL BABADAN RUKUN NO 83 SURABAYA ,082291594140,29/08/2015
04215028,MUHAMMAD FAUZI ALI ,L,ISLAM ,MALANG ,03/03/1989,PAKET C( NASIONAL SKB KOTA MALANG ),0108771,22/07/2008,C,CM,,JL SUROPATI RT 05/RW 05 LOSARI-SINGOSARI MALANG ,081334633345,31/08/2015
04215029,AHMAD FIRDAUS MUTTAQIEN ,L,ISLAM ,SURABAYA ,01/09/1994,STMIK SURABAYA/SMKN 2 BUDURAN KAB SDA ,DN-05 Mk 0050727/12.41010.0125,26/05/2012,A,AT,42,JL JATISARI BESAR III/37 RT 05 RW 5 PEPELEGI WARU SDA ,085732795003/0318545130,24/08/2015
04215030,NUR IKWAN ,L,ISLAM ,SURABAYA ,29/03/1989,AMIK BSI JAKARTA ,12097087,25/09/2013,C,CT ,59,JL TUBANAN BARU BLOK T/22 TANDES SURABAYA ,082155609262,31/08/2015
04215031,AKHMAD ARIF,L,ISLAM ,MOJOKERTO ,16/04/1984,MADRASAH ALIYAH BANGIL 1 PASURUAN ,0025169,17/06/2002,B,BM,,JL. KEDUNG COWEK NO 73 SURABAYA ,087890709000,3/09/2015
04215032,RIZKY RAMADHAN SAPUTRA(SKL) ,L,ISLAM ,BOGOR ,18/01/1997,JLN JAGIRAN BARAT MAKAM GG 13 NO 10 SBY,,,A,AM,,JL JAGIRAN BARAT MAKAM GG 13 10 SURABAYA ,083832508944,03/09/2015
04215033,INDRA YOGA PRADITA (SKL),L,ISLAM ,SURABAYA ,04/01/1995,JL TENGGILIS LAMA 4B/22C SURABAYA ,,,A,AM,,JL TENGGILIS LAMA 4B/22C SURABAYA ,08570640505,
04215034,DAMARA PUTRA PRATAMA,L,ISLAM ,SURABAYA ,30/12/1995,SMK TEKNIK PAL SURABAYA,DN-05 Mk 0017607,20/05/2014,B,BM,,JL.SIDOTOPO KULON NO 53 SURABAYA,085732238813 /,
04215035,ZAHRA SILFIA ANDINI( PINDAHAN MANAJEMEN 01215118),P,ISLAM ,SURABAYA ,18/05/1994,SMKN 2 MATARAM KOTA MATARAM ,DN-23 Mk 0000253,26/05/2012,A,AM ,,JL JETIS KULON GG IX NO 16A SURABAYA ,082143924240/082339933131,31/08/2015
04215036,SENDY RESTU PUTRA ,L,ISLAM ,SURABAYA ,20/12/1989,STMIK SURABAYA/SMA TRIMURTI GENTENG SURABAYA ,08.41010.0116/DN-05 Ma 0093769,14/06/2008,A,AT,64,SIDOSERMO II BLOK H /17 SURABAYA ,081259315460,25/09/2015
04215037,CLAUDIA REPONZA PEDAY (PINDAHAN DARI TEKNIK INFORMATIKA 04315080),P,KRISTEN ,SORONG ,31/05/1995,SMAN 1 AIMAS KABUPATEN SORONG ,DN-33 Ma 0001496,20/05/2014,A,AM,,JL KLALIN AIMAS KAB SORONG ,085244421860,28/09/2015
04215038,RIAN AFDHOL FRIYENDRA,L,ISLAM ,BALIKPAPAN ,25/04/1997,SMAN 11 SURABAYA ,DN-05 Ma 0002520,15/05/2015,A,AM,,PERUM BABATAN PRATAMA BLOK U-26 SURABAYA ',082220221997,25/09/2015
04215039,GERARDD FERDINAND ISIR (SKL) ,L,KRISTEN ,TEMINABUAN ,14/10/1997,SMKI YAPIS TEMINABUAN DISTRIK TEMINABUAN KAB SORONG SELATAN PROVINSI PAPUA BARAT ,,,A,AM,,SEMOLOWARU SELATN GANG 3 NO 38 SURABAYA ,082397020725,25/09/2015
04215040,RIZKY NANDITO SITANAYA ,L,ISLAM ,WAHAI ,19/03/1996,SMK MUHAMMADIYAH MASOHI MALUKU TENGAH ,DN-21 Mk 0001989,20/05/2014,A,AM,,PAKUWON EAST COAST PARK ,082233375784,30/09/2015
04215041,RIZKY FIRMANSYAH ARIEF ,L,ISLAM ,SURABAYA ,09/05/1990,SMA TRIMURTI/STMIK SURABAYA,DN-05 Ma 0093766/08410100071,14/06/2008,B,BT,88,JLN TENGGILIS MEJOYO UTARA III BB-12 SURABAYA ,081222253341,30/09/2015
04215042,OKTA ROSSY ANANDA ,L,ISLAM ,MOJOKERTO ,25/10/1990,SMAN 2 MOJOKERTO/STMIK SURABAYA ,DN-05 Ma 0012837,15/06/2009,C,CT ,66,PERUM JAPANASRI  JL PALEM MERAH AA/13 SOOKO,081216905911/089528082079,05/10/2015
04215043,DIMAS ARYO TRIATMOJO S,L,ISLAM ,BALIK PAPAN,28/04/1990,ITATS SURABAYA/SMAN 1 Balik  Papan,DN 16 Ma 0001824,19/06/2009,A,AT,39,JL. KLAMPIS AJI TENGAH 1 NO.4 SURABAYA,087855036193,18/08/2015
04215044,ADIB PRATAMA,L,ISLAM ,SURABAYA ,22/02/1991,SMAN 8 SEMAMPIR SURABAYA ,NO. DN-05 Ma 0099829,14/06/2008,A,AM,,JL.  BOTOPUTIH II/88 SURABAYA ,081234044250,28/01/2016
04215045,ARIEF KURNIAWAN ,L,ISLAM ,MALANG ,25/07/1995,SMKN 1 PUNGGING KAB MOJOKERTO ,DN-05 Mk 0066870,24/05/2013,A,AM ,,WONOCOLO V UTARA NO 4 RT/RW 05/04 KEL JEMUR WONOSARI KEC WONOCOLO ,085731976177,02/02/2016
04215046,ROHMAT ISMAIL AKBAR ,L,ISLAM ,SURABAYA ,18/04/1997,SMK MAHARDHIKA SURABAYA ,DN-05 Mk 0008182,20/05/2014,B,BM,,JL. JAGIR SIDORESMO GG 6 NO 138,08813223141,10/02/2016
04215047,SANDY RIZAL ARIFAI,L,ISLAM ,SURABAYA ,15/02/1997,SMK TEKNIK PAL SURABAYA ,DN-05 Mk 0017626,20/05/2014,B,BM,,JL ENDROSONO 7/10 SURABAYA ,081333512951,16/02/2015
04215048,ABDUL LATIF BAGUS SHOLICHIN ,L,ISLAM ,SURABAYA ,06/08/1993,UNIVERSITAS PESANTREN TINGGI DARUL'ULUM JOMBANG /SMA MUHAMMADIYAH 2 SIDOARJO ,4111001/DN-05 Ma 0021925,,A,AT,55,JL GRIYA BAYANGKARA BLOK G2/02 SUKODONO SDA ,082139871911,17/02/2016
04215049,AGATHO PUTRAMA REMAYON TOKEDE ,L,KRISTEN ,BANJARMASIN ,08/10/1990,STIKOM SURABAYA/SMAN 1 MANOKWARI ,08410100055/DN-33 Ma 0402911,14/06/2008,B,BT,89,WISMA LIDAH KULON XA-60 BANGKINGAN SURABAYA ,081235800201,17/02/2016
04215050,NINING APRILIYANI (IJASAH BELUM),P,ISLAM ,LARANTUKA,27/04/1997,SMK BINA KARYA LARANTUKA,,,A,AM,,JL TANJUNG PURA 31 SURABAYA ,081238272140,20/02/2016
04215051,AHMAD NOURMAN ARIF PRATHAMA PUTRA ,L,ISLAM ,SUMENEP ,15/05/1994,UNIVERSITAS AIRLANGGA SURABAYA ,081210113039,10/08/2015,B,BT,67,JL MOJO KLANGGRU NO 63 SURABAYA ,087805580080,20/02/2016
04215052,ADI SETYO SUSANTO ,L,ISLAM ,SURABAYA ,07/05/1990,STIKOM SURABAYA/SMAN 16 SURABAYA ,09410100087/DN-05 Ma 0102500,14/06/2008,B,BT,64,JL RAYA PAGESANGAN NO 18 JAMBANGAN SURABAYA ,089605614321,22/02/2016
